HW 02
…
edibnb |>
  select(neighbourhood, review_scores_rating) |>
  filter(!is.na(review_scores_rating)) |>
  filter(!is.na(neighbourhood)) |>
  group_by(neighbourhood) |>
  mutate(median_score = median(review_scores_rating)) |>
  ungroup() |>
  filter(!is.na(median_score)) |>
  mutate(neighbourhood = fct_reorder(neighbourhood, median_score)) 

# A tibble: 9,222 × 3
   neighbourhood review_scores_rating median_score
   <fct>                        <dbl>        <dbl>
 1 New Town                        99           97
 2 Southside                       92           96
 3 Leith                           93           97
 4 Southside                       98           96
 5 Old Town                        97           96
 6 New Town                       100           97
 7 West End                        92           97
 8 Leith                           96           97
 9 West End                        99           97
10 New Town                        77           97
# ℹ 9,212 more rows
…
Rows: 4,788
Columns: 6
$ year               <int> 1999, 1999, 1999, 1999, 1999, 1999, …
$ pac_name_affiliate <chr> "7-Eleven", "7-Eleven", "ABB Group",…
$ country_of_origin  <chr> "Japan", "Japan", "Switzerland", "Sw…
$ parent_company     <chr> "Ito-Yokado", "Ito-Yokado", "Asea Br…
$ party              <chr> "Democrat", "Republican", "Democrat"…
$ amount             <dbl> 1500, 7000, 17000, 28500, 23000, 529…

pac

# A tibble: 4,788 × 6
    year pac_name_affiliate      country_of_origin parent_company
   <int> <chr>                   <chr>             <chr>         
 1  1999 7-Eleven                Japan             Ito-Yokado    
 2  1999 7-Eleven                Japan             Ito-Yokado    
 3  1999 ABB Group               Switzerland       Asea Brown Bo…
 4  1999 ABB Group               Switzerland       Asea Brown Bo…
 5  1999 Accenture               UK                Accenture plc 
 6  1999 Accenture               UK                Accenture plc 
 7  1999 ACE INA                 UK                ACE Group     
 8  1999 ACE INA                 UK                ACE Group     
 9  1999 Acuson Corp (Siemens A… Germany           Siemens AG    
10  1999 Acuson Corp (Siemens A… Germany           Siemens AG    
# ℹ 4,778 more rows
# ℹ 2 more variables: party <chr>, amount <dbl>

uk <- pac |>
  filter(country_of_origin %in% c("United Kingdom", "UK")) |>
  group_by(year, party) |>
  summarize(total_amount = sum(amount, na.rm = TRUE), .groups = "drop") |>
  mutate(total_amount = total_amount / 1000000) |>
  arrange(year, party)

uk

# A tibble: 24 × 3
    year party      total_amount
   <int> <chr>             <dbl>
 1  1999 Democrat          0.979
 2  1999 Republican        2.06 
 3  2001 Democrat          1.05 
 4  2001 Republican        2.01 
 5  2003 Democrat          1.19 
 6  2003 Republican        2.31 
 7  2005 Democrat          1.54 
 8  2005 Republican        3.06 
 9  2007 Democrat          2.69 
10  2007 Republican        2.84 
# ℹ 14 more rows
…
